[

    "Mozilla/5.0 (Windows; U; Windows NT 6.1; rv:2.2) Gecko/20110201",

    "Mozilla/5.0 (X11; Linux x86_64) AppleWebKit/537.36 (KHTML, like Gecko) Chrome/41.0.2227.0 Safari/537.36",

    "Mozilla/5.0 (Windows NT 6.1; WOW64) AppleWebKit/537.36 (KHTML, like Gecko) Chrome/41.0.2227.0 Safari/537.36",

    "Mozilla/5.0 (Windows; U; Windows NT 6.1; it; rv:2.0b4) Gecko/20100818",

    "Mozilla/5.0 (Windows NT 6.3; WOW64) AppleWebKit/537.36 (KHTML, like Gecko) Chrome/41.0.2226.0 Safari/537.36",

    "Mozilla/5.0 (Windows; U; Windows NT 5.1; pl; rv:1.9.2.3) Gecko/20100401 Lightningquail/3.6.3",

    "Mozilla/5.0 (Windows NT 6.3; Win64; x64) AppleWebKit/537.36 (KHTML, like Gecko) Chrome/37.0.2049.0 Safari/537.36",

    "Mozilla/5.0 (Windows NT 4.0; WOW64) AppleWebKit/537.36 (KHTML, like Gecko) Chrome/37.0.2049.0 Safari/537.36",

    "Mozilla/5.0 (Windows; U; BeOS; en-US; rv:1.9.0.7) Gecko/2009021910",

    "Mozilla/5.0 (Macintosh; Intel Mac OS X 10_10_1) AppleWebKit/537.36 (KHTML, like Gecko) Chrome/41.0.2227.1 Safari/537.36",

    "Mozilla/5.0 (X11; U; Linux i686; en-US; rv:1.9.0.3) Gecko/2008090713",

    "Mozilla/5.0 (Windows NT 6.1) AppleWebKit/537.36 (KHTML, like Gecko) Chrome/41.0.2228.0 Safari/537.36",

    "Mozilla/5.0 (X11; U; Linux i686; en-US; rv:1.8.1.4) Gecko/20070531",

    "Mozilla/5.0 (X11; U; Linux i686; en-US; rv:1.8.1.2) Gecko/20070208",

    "Mozilla/5.0 (compatible; Windows; U; Windows NT 5.1; en-US; rv:1.8.1.2) Gecko/20070219",

    "Mozilla/5.0 (Windows; U; Windows NT 6.1; x64; fr; rv:1.9.2.13) Gecko/20101203 Firebird/3.6.13",

    "Mozilla/5.0 (Windows; U; Windows NT 6.1; en-US; rv:1.5a) Gecko/20030728 Mozilla Firebird/0.6.1",

    "Mozilla/5.0 (Windows; U; Windows NT 5.1; en-US; rv:1.5b) Gecko/20030819 Mozilla Firebird/0.6.1.",

    "Mozilla/5.0 (X11; Linux i586; rv:31.0) Gecko/20100101 Firefox/31.0",

    "Mozilla/5.0 (Windows NT 6.1; WOW64; rv:31.0) Gecko/20130401 Firefox/31.0",

    "Opera/9.80 (Macintosh; Intel Mac OS X 10.6.8; U; de) Presto/2.9.168 Version/11.52",

    "Mozilla/5.0 (X11; Ubuntu; Linux x86_64; rv:24.0) Gecko/20100101 Firefox/24.0",

    "Mozilla/5.0 (Windows NT 6.0; WOW64; rv:24.0) Gecko/20100101 Firefox/24.0",

    "Mozilla/5.0 (Macintosh; Intel Mac OS X 10.8; rv:24.0) Gecko/20100101 Firefox/24.0",

    "Mozilla/5.0 (Windows NT 5.1; rv:31.0) Gecko/20100101 Firefox/31.0",

    "Opera/9.80 (Windows NT 6.0) Presto/2.12.388 Version/12.14",

    "Mozilla/5.0 (Windows NT 6.0; rv:2.0) Gecko/20100101 Firefox/4.0 Opera 12.14",

    "Mozilla/5.0 (compatible; MSIE 9.0; Windows NT 6.0) Opera 12.14",

    "Mozilla/5.0 (BlackBerry; U; BlackBerry 9800; en-US) AppleWebKit/534.8+ (KHTML, like Gecko) Version/6.0.0.446 Mobile Safari/534.8+",

    "Mozilla/5.0 (Linux; U; Android 2.3.4; en-us; T-Mobile myTouch 3G Slide Build/GRI40) AppleWebKit/533.1 (KHTML, like Gecko) Version/4.0 Mobile Safari/533.1",

    "Mozilla/5.0 (Linux; U; Android 2.3.3; zh-tw; HTC_Pyramid Build/GRI40) AppleWebKit/533.1 (KHTML, like Gecko) Version/4.0 Mobile Safari/533.1",

    "Mozilla/5.0 (Linux; U; Android 2.3.3; zh-tw; HTC_Pyramid Build/GRI40) AppleWebKit/533.1 (KHTML, like Gecko) Version/4.0 Mobile Safari",

    "Mozilla/5.0 (Linux; U; Android 2.3.3; zh-tw; HTC Pyramid Build/GRI40) AppleWebKit/533.1 (KHTML, like Gecko) Version/4.0 Mobile Safari/533.1"

]
